{
  "name": "2ryru4n-okl71sl",
  "arn": "arn:aws:iam::054747773773:role/2ryru4n-okl71sl",
  "service": [
    "lambda.amazonaws.com",
    "edgelambda.amazonaws.com"
  ],
  "policy": {
    "Version": "2012-10-17",
    "Statement": [
      {
        "Effect": "Allow",
        "Resource": "*",
        "Action": [
          "logs:CreateLogGroup",
          "logs:CreateLogStream",
          "logs:PutLogEvents"
        ]
      },
      {
        "Effect": "Allow",
        "Resource": "arn:aws:s3:::2ryru4n-sguqe0k/*",
        "Action": [
          "s3:GetObject",
          "s3:PutObject"
        ]
      }
    ]
  },
  "region": "us-east-1"
}